C:\Users\hrbai\Desktop\springBatchW\spring-batch-example\src\main\java\com\javatechie\spring\batch\repository\CustomerRepository.java
C:\Users\hrbai\Desktop\springBatchW\spring-batch-example\src\main\java\com\javatechie\spring\batch\BatchProcessingDemoApplication.java
C:\Users\hrbai\Desktop\springBatchW\spring-batch-example\src\main\java\com\javatechie\spring\batch\config\CustomerProcessor.java
C:\Users\hrbai\Desktop\springBatchW\spring-batch-example\src\main\java\com\javatechie\spring\batch\controller\JobController.java
C:\Users\hrbai\Desktop\springBatchW\spring-batch-example\src\main\java\com\javatechie\spring\batch\entity\Customer.java
C:\Users\hrbai\Desktop\springBatchW\spring-batch-example\src\main\java\com\javatechie\spring\batch\config\SpringBatchConfig.java
